HotelObjects\Category.class
TravelInformationHandler.class
LocationObjects\Location.class
AttractionObjects\Attraction.class
LocationObjects\Address_Object.class
LocationObjects\Result_object.class
LocationObjects\Search_explanations.class
PDF\PDFGenerator.class
SendEmail.class
HotelObjects\Award_Images.class
FlightObjects\InboundLeg.class
FlightObjects\Quote.class
HotelObjects\Photo.class
FlightObjects\OutboundLeg.class
HotelObjects\Address_Object.class
HotelObjects\Data.class
AttractionObjects\Week_Ranges.class
HotelObjects\Image_Details.class
Flights.class
AttractionObjects\SubType.class
LocationObjects\Paging.class
HotelObjects\Amenity.class
HotelObjects\Awards.class
AttractionObjects\SubtypeObject.class
AttractionObjects\Filter.class
AttractionObjects\Paging.class
TravelInformationHandler$Parameters.class
HotelObjects\Ancestors.class
AttractionObjects\SubCategory.class
Email\EmailInfo.class
LocationObjects\Data.class
HotelObjects\Neighborhood_info.class
AttractionObjects\Category.class
FlightObjects\Flight.class
AttractionObjects\Data.class
AttractionObjects\Awards.class
LocationObjects\Ancestors.class
LocationObjects\Category.class
Main.class
AttractionObjects\Hours.class
FlightObjects\Currency.class
AttractionObjects\Award_Images.class
AttractionObjects\Ancestors.class
Email\EmailSender.class
HotelObjects\Images.class
HotelObjects\Hotel.class
ApiKey.class
AttractionObjects\Result_object.class
FlightObjects\Place.class
TripAdvisor.class
FlightObjects\Carrier.class
AttractionObjects\Search_explanations.class
AttractionObjects\Address_Object.class
